%YAML 1.1
%TAG !u! tag:unity3d.com,2011:
--- !u!1 &3210657370140496352
GameObject:
  m_ObjectHideFlags: 0
  m_CorrespondingSourceObject: {fileID: 0}
  m_PrefabInstance: {fileID: 0}
  m_PrefabAsset: {fileID: 0}
  serializedVersion: 6
  m_Component:
  - component: {fileID: 2998334255178715375}
  - component: {fileID: 6726315092400232554}
  - component: {fileID: 3008907604170896185}
  m_Layer: 0
  m_Name: Flock Agent
  m_TagString: Untagged
  m_Icon: {fileID: 0}
  m_NavMeshLayer: 0
  m_StaticEditorFlags: 0
  m_IsActive: 1
--- !u!4 &2998334255178715375
Transform:
  m_ObjectHideFlags: 0
  m_CorrespondingSourceObject: {fileID: 0}
  m_PrefabInstance: {fileID: 0}
  m_PrefabAsset: {fileID: 0}
  m_GameObject: {fileID: 3210657370140496352}
  m_LocalRotation: {x: 0, y: 0, z: 0, w: 1}
  m_LocalPosition: {x: 0, y: 0, z: 0}
  m_LocalScale: {x: 1, y: 1, z: 1}
  m_Children:
  - {fileID: 643581717048104191}
  m_Father: {fileID: 0}
  m_RootOrder: 0
  m_LocalEulerAnglesHint: {x: 0, y: 0, z: 0}
--- !u!135 &6726315092400232554
SphereCollider:
  m_ObjectHideFlags: 0
  m_CorrespondingSourceObject: {fileID: 0}
  m_PrefabInstance: {fileID: 0}
  m_PrefabAsset: {fileID: 0}
  m_GameObject: {fileID: 3210657370140496352}
  m_Material: {fileID: 0}
  m_IsTrigger: 0
  m_Enabled: 1
  serializedVersion: 2
  m_Radius: 5.57
  m_Center: {x: 2.94, y: 2.85, z: -4.47}
--- !u!114 &3008907604170896185
MonoBehaviour:
  m_ObjectHideFlags: 0
  m_CorrespondingSourceObject: {fileID: 0}
  m_PrefabInstance: {fileID: 0}
  m_PrefabAsset: {fileID: 0}
  m_GameObject: {fileID: 3210657370140496352}
  m_Enabled: 1
  m_EditorHideFlags: 0
  m_Script: {fileID: 11500000, guid: c590dfcfc312e94429132ae7a6cc1d08, type: 3}
  m_Name: 
  m_EditorClassIdentifier: 
--- !u!1001 &643581717047709311
PrefabInstance:
  m_ObjectHideFlags: 0
  serializedVersion: 2
  m_Modification:
    m_TransformParent: {fileID: 2998334255178715375}
    m_Modifications:
    - target: {fileID: 100000, guid: cc8eb9ea4d129504bbdb7666b6f5ec36, type: 3}
      propertyPath: m_Name
      value: Butterfly 2.2
      objectReference: {fileID: 0}
    - target: {fileID: 400000, guid: cc8eb9ea4d129504bbdb7666b6f5ec36, type: 3}
      propertyPath: m_LocalPosition.x
      value: 0.026602834
      objectReference: {fileID: 0}
    - target: {fileID: 400000, guid: cc8eb9ea4d129504bbdb7666b6f5ec36, type: 3}
      propertyPath: m_LocalPosition.y
      value: 1.0018777
      objectReference: {fileID: 0}
    - target: {fileID: 400000, guid: cc8eb9ea4d129504bbdb7666b6f5ec36, type: 3}
      propertyPath: m_LocalPosition.z
      value: 0.21880603
      objectReference: {fileID: 0}
    - target: {fileID: 400000, guid: cc8eb9ea4d129504bbdb7666b6f5ec36, type: 3}
      propertyPath: m_LocalRotation.x
      value: -0.7071068
      objectReference: {fileID: 0}
    - target: {fileID: 400000, guid: cc8eb9ea4d129504bbdb7666b6f5ec36, type: 3}
      propertyPath: m_LocalRotation.y
      value: 0
      objectReference: {fileID: 0}
    - target: {fileID: 400000, guid: cc8eb9ea4d129504bbdb7666b6f5ec36, type: 3}
      propertyPath: m_LocalRotation.z
      value: 0
      objectReference: {fileID: 0}
    - target: {fileID: 400000, guid: cc8eb9ea4d129504bbdb7666b6f5ec36, type: 3}
      propertyPath: m_LocalRotation.w
      value: 0.7071068
      objectReference: {fileID: 0}
    - target: {fileID: 400000, guid: cc8eb9ea4d129504bbdb7666b6f5ec36, type: 3}
      propertyPath: m_RootOrder
      value: 0
      objectReference: {fileID: 0}
    - target: {fileID: 400000, guid: cc8eb9ea4d129504bbdb7666b6f5ec36, type: 3}
      propertyPath: m_LocalEulerAnglesHint.x
      value: -90
      objectReference: {fileID: 0}
    - target: {fileID: 400000, guid: cc8eb9ea4d129504bbdb7666b6f5ec36, type: 3}
      propertyPath: m_LocalEulerAnglesHint.y
      value: 0
      objectReference: {fileID: 0}
    - target: {fileID: 400000, guid: cc8eb9ea4d129504bbdb7666b6f5ec36, type: 3}
      propertyPath: m_LocalEulerAnglesHint.z
      value: 0
      objectReference: {fileID: 0}
    - target: {fileID: 2300000, guid: cc8eb9ea4d129504bbdb7666b6f5ec36, type: 3}
      propertyPath: m_Materials.Array.data[0]
      value: 
      objectReference: {fileID: 2100000, guid: 6351ab77ff1849647b00e55c20f7fcba, type: 2}
    m_RemovedComponents: []
  m_SourcePrefab: {fileID: 100100000, guid: cc8eb9ea4d129504bbdb7666b6f5ec36, type: 3}
--- !u!4 &643581717048104191 stripped
Transform:
  m_CorrespondingSourceObject: {fileID: 400000, guid: cc8eb9ea4d129504bbdb7666b6f5ec36,
    type: 3}
  m_PrefabInstance: {fileID: 643581717047709311}
  m_PrefabAsset: {fileID: 0}
